steps,values,std_values,n_values
0,122400,122400,0.04022817436243775
1,122400,122400,0.04022817436243775
2,122400,122400,0.04022817436243775
3,122400,122400,0.04022817436243775
4,122400,122400,0.04022817436243775
5,122400,122400,0.04022817436243775
6,121400,121400,0.03989951280718908
7,121707,121707,0.04000041190465042
8,121734,121734,0.04000928576664213
9,115530,115530,0.037970269477879355
10,115987,115987,0.038120467808628
11,117023,117023,0.038460961179865624
12,114215,114215,0.03753807953272735
13,116847,116847,0.03840311674614186
14,117109,117109,0.03848922607361701
15,115440,115440,0.037940689937906974
16,114774,114774,0.03772180134211136
17,122067,122067,0.04011873006453994
18,122067,122067,0.04011873006453994
19,122068,122068,0.04011905872609519
20,122400,122400,0.04022817436243775
21,122400,122400,0.04022817436243775
22,122400,122400,0.04022817436243775
23,122400,122400,0.04022817436243775
24,122400,122400,0.04022817436243775
25,122400,122400,0.04022817436243775
26,122400,122400,0.04022817436243775
27,122400,122400,0.04022817436243775
28,120556,120556,0.03962212245455919
29,119288,119288,0.03920537960250387
30,119210,119210,0.03917974400119448
31,115346,115346,0.0379097957517136
32,118124,118124,0.03882281755219442
33,119240,119240,0.03918960384785194
34,121576,121576,0.039957357240912844
35,122193,122193,0.040160141420501276
36,118327,118327,0.0388895358479099
37,115750,115750,0.03804257502003407
38,118009,118009,0.03878502147334082
39,118643,118643,0.03899339289936848
40,118082,118082,0.03880901376687397
41,115849,115849,0.03807511251400368
42,117816,117816,0.03872158979317782
43,121294,121294,0.039864674682332714
44,119530,119530,0.03928491569887405
45,116364,116364,0.03824437321495675
46,116548,116548,0.03830484694112251
47,119061,119061,0.039130773429462425
48,119203,119203,0.039177443370307735
49,117564,117564,0.03863876708125516
50,116036,116036,0.038136572224835186
51,117996,117996,0.038780748873122585
52,121166,121166,0.03982260600326089
53,118755,118755,0.039030202993556334
54,115912,115912,0.03809581819198435
55,117217,117217,0.03852472152158387
56,119239,119239,0.03918927518629669
57,118942,118942,0.03909166270438783
58,116888,116888,0.038416591869907056
59,116087,116087,0.038153333964152866
60,119164,119164,0.03916462556965304
61,121200,121200,0.03983378049613934
62,117825,117825,0.03872454774717506
63,114070,114070,0.03749042360721629
64,116648,116648,0.03833771309664737
65,118666,118666,0.0390009521151392
66,117924,117924,0.038757085241144684
67,115727,115727,0.03803501580426334
68,114904,114904,0.03776452734429368
69,119277,119277,0.03920176432539614
70,122400,122400,0.04022817436243775
71,122400,122400,0.04022817436243775
72,122400,122400,0.04022817436243775
73,122400,122400,0.04022817436243775
74,122400,122400,0.04022817436243775
75,121548,121548,0.03994815471736588
76,120702,120702,0.0396701070416255
77,120702,120702,0.0396701070416255
78,120702,120702,0.0396701070416255
79,115572,115572,0.0379840732631998
80,27994,27994,0.009200551577631392
81,116680,116680,0.03834823026641533
82,121834,121834,0.040042151922167
83,121834,121834,0.040042151922167
84,121834,121834,0.040042151922167
85,121834,121834,0.040042151922167
86,121834,121834,0.040042151922167
87,121834,121834,0.040042151922167
88,121834,121834,0.040042151922167
89,121834,121834,0.040042151922167
90,121834,121834,0.040042151922167
91,121834,121834,0.040042151922167
92,121834,121834,0.040042151922167
93,121834,121834,0.040042151922167
94,121834,121834,0.040042151922167
95,121834,121834,0.040042151922167
96,121834,121834,0.040042151922167
97,121834,121834,0.040042151922167
98,121834,121834,0.040042151922167
99,121770,121770,0.040021117582631084
100,120244,120244,0.03951958004932161
101,120405,120405,0.03957249455971664
102,120615,120615,0.03964151348631886
103,119636,119636,0.039319753823730416
104,120705,120705,0.039671093026291245
105,119687,119687,0.0393365155630481
106,119773,119773,0.03936478045679948
107,120993,120993,0.03976574755420286
108,121294,121294,0.039864674682332714
109,120841,120841,0.03971579099780507
110,121081,121081,0.039794669771064745
111,121461,121461,0.03991956116205925
112,121141,121141,0.039814389464379665
113,120922,120922,0.03974241258378021
114,121201,121201,0.039834109157694586
115,120978,120978,0.039760817630874135
116,121093,121093,0.03979861370972773
117,121457,121457,0.03991824651583825
118,121361,121361,0.03988669500653438
119,121009,121009,0.039771006139086844
120,121018,121018,0.039773964093084084
121,121208,121208,0.03983640978858133
122,120947,120947,0.039750629122661425
123,121192,121192,0.03983115120369735
124,121429,121429,0.03990904399229129
125,121135,121135,0.03981241749504818
126,120875,120875,0.03972696549068352
127,121310,121310,0.039869933267216696
128,120953,120953,0.03975260109199292
129,120899,120899,0.03973485336800949
130,121379,121379,0.03989261091452885
131,121442,121442,0.03991331659250952
132,120994,120994,0.03976607621575811
133,120935,120935,0.03974668518399844
134,121339,121339,0.03987946445231891
135,120864,120864,0.03972335021357579
136,121017,121017,0.039773635431528835
137,121383,121383,0.039893925560749846
138,121342,121342,0.039880450436984655
139,120885,120885,0.03973025210623601
140,121070,121070,0.039791054493957013
141,121231,121231,0.039843969004352046
142,120868,120868,0.03972466485979678
143,121249,121249,0.03984988491234653
144,121502,121502,0.03993303628582444
145,121161,121161,0.039820962695484644
146,120952,120952,0.03975227243043767
147,121206,121206,0.03983575246547083
148,120887,120887,0.039730909429346505
149,121074,121074,0.03979236914017801
150,121423,121423,0.039907072022959796
151,121395,121395,0.03989786949941283
152,121032,121032,0.03977856535485756
153,121057,121057,0.03978678189373878
154,121032,121032,0.03977856535485756
155,120873,120873,0.03972630816757303
156,121406,121406,0.039901484776520564
157,121510,121510,0.03993566557826643
158,120879,120879,0.03972828013690451
159,120281,120281,0.03953174052686581
160,120734,120734,0.039680624211393456
161,118370,118370,0.038903668294785594
162,119894,119894,0.03940454850498457
163,121099,121099,0.039800585679059225
164,121185,121185,0.03982885057281061
165,120669,120669,0.03965926121030229
166,119248,119248,0.03919223314029393
167,120198,120198,0.039504461617780165
168,120226,120226,0.039513664141327134
169,120411,120411,0.039574466529048134
170,119553,119553,0.03929247491464477
171,119435,119435,0.03925369285112543
172,120133,120133,0.03948309861668901
173,121273,121273,0.039857772789672494
174,120634,120634,0.03964775805586859
175,119058,119058,0.03912978744479668
176,120493,120493,0.039601416776578524
177,120901,120901,0.03973551069111999
178,120493,120493,0.039601416776578524
179,120077,120077,0.03946469356959508
180,119546,119546,0.039290174283758035
181,120561,120561,0.039623765762335436
182,120924,120924,0.03974306990689071
183,121389,121389,0.03989589753008134
184,121057,121057,0.03978678189373878
185,120811,120811,0.03970593115114761
186,121297,121297,0.03986566066699846
187,121158,121158,0.0398199767108189
188,120941,120941,0.03974865715332993
189,121295,121295,0.03986500334388796
190,121404,121404,0.039900827453410066
191,120990,120990,0.03976476156953712
192,120923,120923,0.03974274124533546
193,121395,121395,0.03989786949941283
194,121029,121029,0.039777579370191815
195,121013,121013,0.03977232078530784
196,121467,121467,0.039921533131390734
197,121428,121428,0.03990871533073604
198,120908,120908,0.039737811322006725
199,121045,121045,0.0397828379550758
200,121240,121240,0.03984692695834929
201,120848,120848,0.039718091628691804
202,121234,121234,0.03984495498901779
203,121510,121510,0.03993566557826643
204,121275,121275,0.03985843011278299
205,120875,120875,0.03972696549068352
206,121225,121225,0.03984199703502056
207,121075,121075,0.03979269780173326
208,120881,120881,0.03972893746001501
209,121379,121379,0.03989261091452885
210,121485,121485,0.039927449039385214
211,121063,121063,0.03978875386307027
212,121025,121025,0.03977626472397082
213,121188,121188,0.03982983655747636
214,120951,120951,0.03975194376888242
215,121316,121316,0.03987190523654818
216,121510,121510,0.03993566557826643
217,121116,121116,0.03980617292549845
218,120885,120885,0.03973025210623601
219,121352,121352,0.03988373705253714
220,121104,121104,0.03980222898683547
221,120981,120981,0.03976180361553988
222,121434,121434,0.03991068730006753
223,121482,121482,0.03992646305471947
224,120959,120959,0.03975457306132441
225,120250,120250,0.0395215520186531
226,120451,120451,0.039587612991258084
227,120027,120027,0.03944826049183264
228,120101,120101,0.03947258144692105
229,120336,120336,0.03954981691240449
230,120068,120068,0.03946173561559784
231,120660,120660,0.03965630325630506
232,121113,121113,0.0398051869408327
233,120836,120836,0.039714147690028824
234,119032,119032,0.03912124224436021
235,120314,120314,0.03954258635818902
236,120839,120839,0.03971513367469457
237,119419,119419,0.03924843426624145
238,119979,119979,0.03943248473718071
239,119352,119352,0.03922641394203979
240,120304,120304,0.03953929974263653
241,121130,121130,0.039810774187271934
242,120778,120778,0.0396950853198244
243,119714,119714,0.03934538942503981
244,120123,120123,0.03947981200113652
245,119941,119941,0.03941999559808126
246,118193,118193,0.03884549519950658
247,115868,115868,0.03808135708355341
248,114618,114618,0.037670530139492564
249,116745,116745,0.0383695932675065
250,118564,118564,0.038967428636503834
251,120407,120407,0.03957315188282714
252,120864,120864,0.03972335021357579
253,120986,120986,0.039763446923316126
254,120256,120256,0.039523523987984595
255,120315,120315,0.03954291501974426
256,121086,121086,0.03979631307884099
257,120971,120971,0.03975851699998739
258,120069,120069,0.03946206427715309
259,119541,119541,0.03928853097598179
260,119819,119819,0.03937989888834092
261,119076,119076,0.03913570335279116
262,118812,118812,0.03904893670220551
263,119276,119276,0.03920143566384089
264,119769,119769,0.03936346581057849
265,119493,119493,0.03927275522132985
266,118154,118154,0.03883267739885188
267,118863,118863,0.03906569844152319
268,120452,120452,0.03958794165281333
269,120876,120876,0.03972729415223877
270,121025,121025,0.03977626472397082
271,121290,121290,0.03986336003611172
272,121432,121432,0.039910029976957036
273,121362,121362,0.039887023668089626
274,120165,120165,0.039493615786456965
275,119754,119754,0.03935853588724976
276,120157,120157,0.039490986494014974
277,120981,120981,0.03976180361553988
278,120863,120863,0.03972302155202054
279,120767,120767,0.03969147004271666
280,120633,120633,0.039647429394313344
281,118962,118962,0.0390982359354928
282,119408,119408,0.03924481898913371
283,120609,120609,0.03963954151698738
284,120170,120170,0.0394952590942332
285,120016,120016,0.03944464521472491
286,119445,119445,0.039256979466677916
287,119860,119860,0.03939337401210612
288,119069,119069,0.039133402721904416
289,117811,117811,0.038719946485401585
290,117886,117886,0.03874459610204523
291,117603,117603,0.03865158488190986
292,117049,117049,0.038469506380302096
293,118843,118843,0.03905912521041822
294,119840,119840,0.039386800781001145
295,119186,119186,0.03917185612386851
296,119622,119622,0.03931515256195693
297,118899,118899,0.03907753025751214
298,119699,119699,0.03934045950171108
299,114180,114180,0.037526576378293645
300,101154,101154,0.033245430959624414
301,98119,98119,0.032247943139444686
302,104612,104612,0.03438194261767433
303,115530,115530,0.037970269477879355
304,111175,111175,0.03653894840477138
305,110957,110957,0.03646730018572717
306,117253,117253,0.038536553337572825
307,118514,118514,0.0389509955587414
308,119489,119489,0.03927144057510886
309,118906,118906,0.03907983088839888
310,118039,118039,0.03879488131999828
311,116792,116792,0.03838504036060318
312,117498,117498,0.038617075418608746
313,117591,117591,0.03864764094324687
314,117625,117625,0.03865881543612533
315,119683,119683,0.0393352009168271
316,120846,120846,0.039717434305581306
317,119381,119381,0.039235945127142
318,119119,119119,0.03914983579966685
319,119824,119824,0.03938154219611716
320,118963,118963,0.03909856459704805
321,119360,119360,0.03922904323448178
322,119938,119938,0.03941900961341551
323,118207,118207,0.038850096461280056
324,117166,117166,0.03850795978226619
325,117716,117716,0.03868872363765296
326,118186,118186,0.038843194568619836
327,118061,118061,0.03880211187421375
328,117729,117729,0.03869299623787119
329,117006,117006,0.0384553739334264
330,116672,116672,0.03834560097397334
331,117057,117057,0.03847213567274408
332,118527,118527,0.03895526815895963
333,120695,120695,0.03966780641073876
334,120953,120953,0.03975260109199292
335,120744,120744,0.039683910826945945
336,119847,119847,0.03938910141188788
337,119823,119823,0.039381213534561914
338,120924,120924,0.03974306990689071
339,120760,120760,0.03968916941182992
340,120378,120378,0.03956362069772493
341,120558,120558,0.03962277977766969
342,120143,120143,0.03948638523224149
343,120025,120025,0.039447603168722145
344,120218,120218,0.03951103484888514
345,120650,120650,0.03965301664075257
346,121054,121054,0.03978579590907303
347,121503,121503,0.03993336494737969
348,121399,121399,0.03989918414563383
349,120891,120891,0.0397322240755675
350,121059,121059,0.039787439216849275
351,121228,121228,0.0398429830196863
352,120847,120847,0.039717762967136555
353,121249,121249,0.03984988491234653
354,121508,121508,0.03993500825515593
355,121199,121199,0.03983345183458409
356,120972,120972,0.03975884566154264
357,121338,121338,0.03987913579076366
358,121037,121037,0.039780208662633806
359,120754,120754,0.039687197442498434
360,120795,120795,0.039700672566263626
361,120756,120756,0.03968785476560893
362,120330,120330,0.03954784494307299
363,120324,120324,0.0395458729737415
364,119108,119108,0.039146220522559116
365,119379,119379,0.0392352878040315
366,121031,121031,0.03977823669330231
367,121167,121167,0.03982293466481614
368,119276,119276,0.03920143566384089
369,119944,119944,0.039420981582747004
370,120696,120696,0.03966813507229401
371,119358,119358,0.03922838591137128
372,120075,120075,0.039464036246484584
373,119625,119625,0.03931613854662268
374,120863,120863,0.03972302155202054
375,120951,120951,0.03975194376888242
376,120252,120252,0.0395222093417636
377,119615,119615,0.03931285193107019
378,120225,120225,0.039513335479771886
379,120519,120519,0.039609961977014996
380,120884,120884,0.03972992344468076
381,120317,120317,0.03954357234285476
382,119107,119107,0.03914589186100387
383,120879,120879,0.03972828013690451
384,121148,121148,0.03981669009526641
385,120845,120845,0.03971710564402606
386,121311,121311,0.039870261928771945
387,121484,121484,0.039927120377829965
388,121126,121126,0.03980945954105094
389,120994,120994,0.03976607621575811
390,121379,121379,0.03989261091452885
391,120996,120996,0.03976673353886861
392,120930,120930,0.0397450418762222
393,121458,121458,0.0399185751773935
394,121458,121458,0.0399185751773935
395,121007,121007,0.039770348815976346
396,121074,121074,0.03979236914017801
397,121129,121129,0.039810445525716685
398,120843,120843,0.039716448320915566
399,121297,121297,0.03986566066699846
400,121444,121444,0.039913973915620016
401,120987,120987,0.039763775584871375
402,120911,120911,0.03973879730667247
403,121391,121391,0.03989655485319184
404,121050,121050,0.03978448126285204
405,121030,121030,0.039777908031747064
406,121448,121448,0.03991528856184101
407,121410,121410,0.03990279942274156
408,120898,120898,0.03973452470645424
409,121030,121030,0.039777908031747064
410,121268,121268,0.03985612948189625
411,120877,120877,0.039727622813794015
412,121229,121229,0.03984331168124155
413,121508,121508,0.03993500825515593
414,121268,121268,0.03985612948189625
415,120869,120869,0.03972499352135203
416,121211,121211,0.039837395773247075
417,121091,121091,0.039797956386617234
418,120881,120881,0.03972893746001501
419,121365,121365,0.03988800965275537
420,121475,121475,0.039924162423832725
421,121075,121075,0.03979269780173326
422,121023,121023,0.03977560740086032
423,121397,121397,0.03989852682252333
424,120944,120944,0.03974964313799568
425,120930,120930,0.0397450418762222
426,120471,120471,0.039594186222363055
427,120049,120049,0.03945549104604812
428,120138,120138,0.03948474192446525
429,120259,120259,0.039524509972650335
430,120078,120078,0.03946502223115033
431,119488,119488,0.03927111191355361
432,120954,120954,0.03975292975354817
433,121094,121094,0.03979894237128298
434,119144,119144,0.03915805233854806
435,120007,120007,0.03944168726072767
436,120788,120788,0.03969837193537688
437,120343,120343,0.03955211754329123
438,119062,119062,0.039131102091017674
439,119534,119534,0.03928623034509505
440,120682,120682,0.039663533810520527
441,120878,120878,0.039727951475349264
442,120384,120384,0.03956559266705642
443,119536,119536,0.039286887668205546
444,120185,120185,0.039500189017561936
445,120633,120633,0.039647429394313344
446,120883,120883,0.03972959478312551
447,120166,120166,0.039493944448012214
448,119096,119096,0.03914227658389613
449,121021,121021,0.03977495007774983
450,121019,121019,0.03977429275463933
451,120903,120903,0.03973616801423049
452,121420,121420,0.03990608603829405
453,121456,121456,0.039917917854283
454,121024,121024,0.03977593606241557
455,121057,121057,0.03978678189373878
456,121389,121389,0.03989589753008134
457,120910,120910,0.03973846864511722
458,121040,121040,0.03978119464729955
459,121498,121498,0.03993172163960344
460,121350,121350,0.03988307972942664
461,120925,120925,0.039743398568445956
462,121152,121152,0.0398180047414874
463,121053,121053,0.03978546724751778
464,120976,120976,0.03976016030776364
465,121383,121383,0.039893925560749846
466,121356,121356,0.03988505169875813
467,120811,120811,0.03970593115114761
468,120994,120994,0.03976607621575811
469,121372,121372,0.039890310283642115
470,120965,120965,0.0397565450306559
471,121074,121074,0.03979236914017801
472,121433,121433,0.03991035863851228
473,121240,121240,0.03984692695834929
474,120843,120843,0.039716448320915566
475,121161,121161,0.039820962695484644
476,121102,121102,0.03980157166372497
477,120860,120860,0.03972203556735479
478,121355,121355,0.039884723037202884
479,121500,121500,0.03993237896271394
480,121125,121125,0.03980913087949569
481,120886,120886,0.039730580767791256
482,121326,121326,0.03987519185210067
483,120934,120934,0.03974635652244319
484,120898,120898,0.03973452470645424
485,121369,121369,0.03988932429897637
486,121324,121324,0.039874534528990174
487,120922,120922,0.03974241258378021
488,121093,121093,0.03979861370972773
489,121357,121357,0.03988538036031338
490,120885,120885,0.03973025210623601
491,121091,121091,0.039797956386617234
492,121506,121506,0.039934350932045434
493,119982,119982,0.039433470721846456
494,119208,119208,0.03917908667808398
495,120222,120222,0.03951234949510614
496,120106,120106,0.03947422475469729
497,120041,120041,0.03945286175360613
498,120034,120034,0.039450561122719385
499,120392,120392,0.03956822195949841
500,120850,120850,0.0397187489518023
501,120860,120860,0.03972203556735479
502,119607,119607,0.039310222638628205
503,119756,119756,0.03935919321036025
504,120412,120412,0.03957479519060338
505,119771,119771,0.039364123133688984
506,120282,120282,0.03953206918842106
507,119069,119069,0.039133402721904416
508,120433,120433,0.0395816970832636
509,121022,121022,0.03977527873930507
510,120343,120343,0.03955211754329123
511,119479,119479,0.03926815395955637
512,120575,120575,0.03962836702410892
513,120414,120414,0.03957545251371388
514,120269,120269,0.039527796588202824
515,120436,120436,0.03958268306792935
516,119053,119053,0.03912814413702043
517,120540,120540,0.039616863869675216
518,121408,121408,0.03990214209963106
519,121345,121345,0.039881436421650394
520,120963,120963,0.0397558877075454
521,121154,121154,0.0398186620645979
522,121290,121290,0.03986336003611172
523,120847,120847,0.039717762967136555
524,121128,121128,0.039810116864161436
525,121410,121410,0.03990279942274156
526,121138,121138,0.039813403479713926
527,120922,120922,0.03974241258378021
528,121202,121202,0.039834437819249835
529,120997,120997,0.03976706220042386
530,121113,121113,0.0398051869408327
531,121485,121485,0.039927449039385214
532,121313,121313,0.03987091925188244
533,120873,120873,0.03972630816757303
534,121149,121149,0.03981701875682166
535,121276,121276,0.03985875877433824
536,120956,120956,0.039753587076658665
537,121268,121268,0.03985612948189625
538,121492,121492,0.03992974967027195
539,121146,121146,0.03981603277215591
540,120846,120846,0.039717434305581306
541,121295,121295,0.03986500334388796
542,120954,120954,0.03975292975354817
543,120897,120897,0.039734196044898994
544,121380,121380,0.0398929395760841
545,121446,121446,0.039914631238730514
546,120982,120982,0.03976213227709513
547,120904,120904,0.03973649667578573
548,121344,121344,0.03988110776009515
549,120896,120896,0.039733867383343745
550,121016,121016,0.039773306769973586
551,121396,121396,0.03989819816096808
552,121502,121502,0.03993303628582444
553,121492,121492,0.03992974967027195
554,121680,121680,0.0399915380426587
555,121834,121834,0.040042151922167
556,121834,121834,0.040042151922167
557,121834,121834,0.040042151922167
558,121834,121834,0.040042151922167
559,121834,121834,0.040042151922167
560,121589,121589,0.03996162984113107
561,121483,121483,0.039926791716274716
562,120916,120916,0.039740440614448716
563,120620,120620,0.03964315679409511
564,120617,120617,0.03964217080942936
565,120956,120956,0.039753587076658665
566,121620,121620,0.03997181834934378
567,121492,121492,0.03992974967027195
568,120008,120008,0.03944201592228292
569,120886,120886,0.039730580767791256
570,121228,121228,0.0398429830196863
571,121180,121180,0.039827207265034366
572,119877,119877,0.03939896125854534
573,119965,119965,0.039427883475407224
574,121222,121222,0.03984101105035481
575,116680,116680,0.03834823026641533
576,27274,27274,0.008963915257852346
577,115411,115411,0.03793115875280476
578,121620,121620,0.03997181834934378
579,121813,121813,0.04003525002950678
580,121787,121787,0.04002670482907031
581,121360,121360,0.03988636634497913
582,120622,120622,0.039643814117205606
583,122143,122143,0.04014370834273884
584,122400,122400,0.04022817436243775
585,122400,122400,0.04022817436243775
586,122400,122400,0.04022817436243775
587,122400,122400,0.04022817436243775
588,122400,122400,0.04022817436243775
589,122400,122400,0.04022817436243775
590,122400,122400,0.04022817436243775
591,122400,122400,0.04022817436243775
592,122400,122400,0.04022817436243775
593,122400,122400,0.04022817436243775
594,122400,122400,0.04022817436243775
595,122400,122400,0.04022817436243775
596,122400,122400,0.04022817436243775
597,122400,122400,0.04022817436243775
598,122400,122400,0.04022817436243775
599,122400,122400,0.04022817436243775
600,122400,122400,0.04022817436243775
601,122400,122400,0.04022817436243775
602,122400,122400,0.04022817436243775
603,122400,122400,0.04022817436243775
604,122400,122400,0.04022817436243775
605,122400,122400,0.04022817436243775
606,122400,122400,0.04022817436243775
607,122400,122400,0.04022817436243775
608,122400,122400,0.04022817436243775
609,122400,122400,0.04022817436243775
610,122400,122400,0.04022817436243775
611,122400,122400,0.04022817436243775
612,122400,122400,0.04022817436243775
613,122400,122400,0.04022817436243775
614,122400,122400,0.04022817436243775
615,122400,122400,0.04022817436243775
616,122400,122400,0.04022817436243775
617,122400,122400,0.04022817436243775
618,122400,122400,0.04022817436243775
619,122400,122400,0.04022817436243775
620,122400,122400,0.04022817436243775
621,122400,122400,0.04022817436243775
622,122400,122400,0.04022817436243775
623,122400,122400,0.04022817436243775
624,122400,122400,0.04022817436243775
625,122400,122400,0.04022817436243775
626,122400,122400,0.04022817436243775
627,122400,122400,0.04022817436243775
628,122400,122400,0.04022817436243775
629,122400,122400,0.04022817436243775
630,122400,122400,0.04022817436243775
631,122400,122400,0.04022817436243775
632,122400,122400,0.04022817436243775
633,122400,122400,0.04022817436243775
634,122400,122400,0.04022817436243775
635,122400,122400,0.04022817436243775
636,122400,122400,0.04022817436243775
637,122400,122400,0.04022817436243775
638,122400,122400,0.04022817436243775
639,122400,122400,0.04022817436243775
